"d17c7886ad4a021eb95caf56919e8a2fa84affe4  src/or/tor_main.c\n"
"4f489def2752d1f83a61139e3313072e6a5950ec  src/or/addressmap.c\n"
"8f9819f1d5dc8e61fde8788dd47888d943c3575d  src/or/buffers.c\n"
"74f763f92c700263f6df0d96120082f09b7fae51  src/or/channel.c\n"
"4afc98ea3acf2277298f69512e2378da90e4d23f  src/or/channeltls.c\n"
"8cb6611e943fd241fbd3bb93bfa21416769db019  src/or/circpathbias.c\n"
"d1807d90c5604f513baec753fc55834a1ae7392b  src/or/circuitbuild.c\n"
"f7c1308c1985e379d9ff67168ddf06c14be80406  src/or/circuitlist.c\n"
"c7e861ae6056239ffcbe7db6b61ec521f6f6f754  src/or/circuitmux.c\n"
"e04395f5626a44091aac8721eeeb2821de0747f6  src/or/circuitmux_ewma.c\n"
"1d2e9da0c1be9ce8bd5d9de94fe2e4945d150a18  src/or/circuitstats.c\n"
"5776873a5dc7169b11b3b9dcb472eb4a6d9e02bc  src/or/circuituse.c\n"
"ce051b980881a187d1f3ec523af7bcbe05d47493  src/or/command.c\n"
"a62c99c09b6422963a476a081b99302bef9ee3fd  src/or/config.c\n"
"e647847e7ff8ae6ab5d4265231db84850681e27e  src/or/confparse.c\n"
"62d82a06567878a3bb13cf437fe2b481a7d72a07  src/or/connection.c\n"
"33beb636c1e426dd26dcfdf5e1ba8079f851ad4b  src/or/connection_edge.c\n"
"2fc1742f4221783eafec251ab298c1c87d78cfea  src/or/connection_or.c\n"
"8fbce30454f2ee687f440fd9db7fff65adf367db  src/or/control.c\n"
"dd2db709c1801c11a348cb93584b624b73aa750b  src/or/cpuworker.c\n"
"f8cc680e279b722260ff14352efdaa24972c28f0  src/or/directory.c\n"
"ffd24c5414db06298f02e2b74cb696de164c2556  src/or/dirserv.c\n"
"f1c12f6a0006e7f77c18086ad379a4edd812be5b  src/or/dirvote.c\n"
"091b986c7423e617a91dd10679a25c753f99349e  src/or/dns.c\n"
"5812ff84687416f820420d3f8a52b9600cdb4116  src/or/dnsserv.c\n"
"d1b79c4c55984bfd9aeb41492345406b63539485  src/or/fp_pair.c\n"
"e78272dcc2c58b0fe1dd582333aed8b56ba0acfd  src/or/geoip.c\n"
"0f0b0b06d2a799c1609372092b135469c1c4584b  src/or/entrynodes.c\n"
"dd355eff16288001961d64202ccd1a4b658d3254  src/or/ext_orport.c\n"
"4c6eebb08027a653aaa9852032c526bf4286ae5d  src/or/hibernate.c\n"
"6ada05b653918164436987350636d4e42a04d3fa  src/or/main.c\n"
"62077776bbb3053cd6dc78f154d95886d081e827  src/or/microdesc.c\n"
"0155eed1e65f2ab6b31d590688c583223a9ffd01  src/or/networkstatus.c\n"
"7404e661b28a8cfd4c9acbc9b0b95272b0fb4317  src/or/nodelist.c\n"
"ab7fb24454615c202d961e0b9219a3d3651ffbe6  src/or/onion.c\n"
"452500593d7210205113d628cd35bc4dde928f8d  src/or/onion_fast.c\n"
"861aae1fc05ced5c4ba9a65b4af27b72334b9821  src/or/onion_tap.c\n"
"127d52d33be3e7bfb39b7df05547ca6ea177e643  src/or/transports.c\n"
"1bf00cf5d2590f86721aae9533e656fb7922a2f6  src/or/policies.c\n"
"727ea4d73c2a1734ce1c1313e79156a9f3ac6630  src/or/reasons.c\n"
"c7f570fae6c9fd47ca194bfed16ab65570077586  src/or/relay.c\n"
"de2b01779f7377754b459d2ba18079616abf67c9  src/or/rendclient.c\n"
"0eddf719899e16edfafe834d86edfdc5e1aceb11  src/or/rendcommon.c\n"
"2a405ebcd46953703a20ca89bf7db5878b75c4c7  src/or/rendmid.c\n"
"999814c7390ef19057919d08bee3bb198bd766a6  src/or/rendservice.c\n"
"851d0858b4af447ffef05b3a75e584160b690c7d  src/or/rephist.c\n"
"0bedee95c36846f4dc6a952cf2a11df7221ea8be  src/or/replaycache.c\n"
"9bbc4e8a9022c3ca5dce213d2af685ce0571a15a  src/or/router.c\n"
"105338332a1bcb60ed74b9538c9d6e160224043a  src/or/routerlist.c\n"
"7ea6e1a6dd61b75eb70f15b315480b02c756ce62  src/or/routerparse.c\n"
"17bfacd4a0839f906490a2d3fcc792a6b671851f  src/or/routerset.c\n"
"82d6c5d08f209a4c898c276c0740eae042bb14b3  src/or/scheduler.c\n"
"ac3af3092056eff7fd4c127824b1b5ee65e35618  src/or/statefile.c\n"
"cdccd57c8426cb5bb39f77428283762d7b349d64  src/or/status.c\n"
"950d974acd8f03e9aa955333719e6f5012708698  src/or/onion_ntor.c\n"
"48ea4f809cf6b7738d5cfe9b64ee685f35552943  src/or/config_codedigest.c\n"
"20c82b12bfcc8542c97a95c41fade61d88f78926  src/or/addressmap.h\n"
"f5ef1c94e27fb68e20b8e9e1cfa652cd8ff726f4  src/or/buffers.h\n"
"99a4848fd680407f772f572889f7e42e7b50fd64  src/or/channel.h\n"
"fb3391cdb5e9abeb269b63dec6ce3a61c2e2e4dd  src/or/channeltls.h\n"
"d0e1ad28d7c128885d9917d36ba2043b287348cc  src/or/circpathbias.h\n"
"36b3009ffb62557a81ef83b7fe7da0a8bf738f4c  src/or/circuitbuild.h\n"
"3561b7603126f48baca7d3b50d799a9376113c69  src/or/circuitlist.h\n"
"2063d97ae33c223f098173675ffc1e226ad81b22  src/or/circuitmux.h\n"
"a50296acac00983f24332ab91a4c1f50c3ac233d  src/or/circuitmux_ewma.h\n"
"8869f12679fc2e1d91fb87843810fafed3248def  src/or/circuitstats.h\n"
"2998a9062340dfdc98bd322923e8b5e11198b184  src/or/circuituse.h\n"
"e1a3aeb2c47bdad9a0f03191641e381edff4280a  src/or/command.h\n"
"7e3a74dc855e0222652404afc9e055853dbd7c5d  src/or/config.h\n"
"a44b4a529c23d78658b87abe65d3e2a026ac7975  src/or/confparse.h\n"
"7d9670ea43edab41cc3dfc47754e7fa5aa49712d  src/or/connection.h\n"
"58106902db600a87e8047e76c84495d9cb41117e  src/or/connection_edge.h\n"
"0bb1e02e5d4963c15bd4c0efb80e1d31ea71b6b4  src/or/connection_or.h\n"
"5f2ad2f509c86e962efa04b27f89d53754f1bc3e  src/or/control.h\n"
"cb979681112e4778d64f2212bc9d7245392d8cd8  src/or/cpuworker.h\n"
"6a8b715ade45f5833eac5213e0a3e53296954f4f  src/or/directory.h\n"
"66c034c2aa0fb06da245e47c477cf964aad208b7  src/or/dirserv.h\n"
"4b1b4de4dd58797a5f723c1c6441f01ece2cfc67  src/or/dirvote.h\n"
"9aaa503266765c9951f83e427fa16dbc72feee90  src/or/dns.h\n"
"ed37d82042bb1aac4b49e7d3073960b7c076b405  src/or/dnsserv.h\n"
"07ff77fecb469f673d91d3a6cac257c65f627204  src/or/eventdns_tor.h\n"
"a3fdbcc8ff0ed69d2d008dcdc16b047c57bdfaed  src/or/ext_orport.h\n"
"db67d7d2746ccf7cc0bf7db46f0eaa05f1e2fe8f  src/or/fp_pair.h\n"
"497a8efd40efccbb9cd85b73b1c6fa869037eefd  src/or/geoip.h\n"
"6c1f763d53f575508eba716250f9ef5d77c8db5d  src/or/entrynodes.h\n"
"20bd3904145e5da42e0533823a2c129750e3f451  src/or/hibernate.h\n"
"7bd6241b6216bc7dde5ae1b0464ea68003c5b0a9  src/or/main.h\n"
"48ee5af5a709654afc7ccb31a1a856dc89998381  src/or/microdesc.h\n"
"a85b6f5442853faa2bce5945ea0a1aa114c1584c  src/or/networkstatus.h\n"
"63a6814b2691221afd74ded037cc8dc8001266d9  src/or/nodelist.h\n"
"04482c868ae8570c8118ef78b880e5dc4e6a1c8e  src/or/ntmain.h\n"
"fb3e393ca79336495fa5987d10ba4faeb9002f4c  src/or/onion.h\n"
"9e55a60424f35f84910caa150910f95e0c001ffb  src/or/onion_fast.h\n"
"c50fd27479899fa70cd2f53f9091e54c39206031  src/or/onion_ntor.h\n"
"967ecb5a0fd9908067fd65f58e16f9dd218237be  src/or/onion_tap.h\n"
"d52b25c3bcde56e4e136e5cc4b483eeb23ddc6f4  src/or/or.h\n"
"6248869b9027d657b6dfd43220a320bf9be1fc25  src/or/transports.h\n"
"1cdce9e85592d9ac9d7b0fae03da6d9636d231d5  src/or/policies.h\n"
"d11647050a172f2110735757a51498fb3d123d6e  src/or/reasons.h\n"
"d2334f487965dfa4e6a94c4f16633a6687b46b23  src/or/relay.h\n"
"f8c3941a530bae8e2b131c3a769c8e4d9b915dfb  src/or/rendclient.h\n"
"57d1476fa7670f369c4c46b4c2bb8dc4459425bb  src/or/rendcommon.h\n"
"b410122bb1271a7719f6af36c1ca54232d72a36f  src/or/rendmid.h\n"
"24edbac14992141dd0efc4fb74e5769d3d73a7ec  src/or/rendservice.h\n"
"49c84cdc8e7c6c4e9247da4186f46c199b87918b  src/or/rephist.h\n"
"7915da44687c05e24e4a9821389f9336e24e15f4  src/or/replaycache.h\n"
"df4c3525511c8320ed8963e8554cd14fe328a61e  src/or/router.h\n"
"dbd676d35c2e255c55cb84b6550e9e5bf1556910  src/or/routerlist.h\n"
"0aa4acde961988ae86877764932d74c1ac09b4ae  src/or/routerset.h\n"
"09e0d2a8d9e8c27e1c230e80035b88fd1e429d94  src/or/routerparse.h\n"
"5c7ff0e41f5365a11d5ecdef1cf194ab2cacbee0  src/or/scheduler.h\n"
"905f173f9d63402687338788f820536b7c2bc9c8  src/or/statefile.h\n"
"c1258eba96dab2df8558a04db43748152e7a0294  src/or/status.h\n"
